{
    "KPackageStructure": "Plasma/Applet",
    "KPlugin": {
        "Authors": [
            {
                "Email": "mart@kde.org",
                "Name": "Marco Martin",
                "Name[ar]": "ماركو مارتن",
                "Name[ast]": "Marco Martin",
                "Name[az]": "Marco Martin",
                "Name[be]": "Marco Martin",
                "Name[bg]": "Marco Martin",
                "Name[ca@valencia]": "Marco Martin",
                "Name[ca]": "Marco Martin",
                "Name[cs]": "Marco Martin",
                "Name[de]": "Marco Martin",
                "Name[en_GB]": "Marco Martin",
                "Name[eo]": "Marco Martin",
                "Name[es]": "Marco Martin",
                "Name[eu]": "Marco Martin",
                "Name[fi]": "Marco Martin",
                "Name[fr]": "Marco Martin",
                "Name[gl]": "Marco Martin",
                "Name[ia]": "Marco Martin",
                "Name[id]": "Marco Martin",
                "Name[it]": "Marco Martin",
                "Name[ka]": "Marco Martin",
                "Name[ko]": "Marco Martin",
                "Name[nl]": "Marco Martin",
                "Name[nn]": "Marco Martin",
                "Name[pl]": "Marco Martin",
                "Name[pt]": "Marco Martin",
                "Name[pt_BR]": "Marco Martin",
                "Name[ru]": "Marco Martin",
                "Name[sk]": "Marco Martin",
                "Name[sl]": "Marco Martin",
                "Name[sv]": "Marco Martin",
                "Name[ta]": "மார்க்கோ மார்ட்டின்",
                "Name[tr]": "Marco Martin",
                "Name[uk]": "Marco Martin",
                "Name[vi]": "Marco Martin",
                "Name[x-test]": "xxMarco Martinxx",
                "Name[zh_CN]": "Marco Martin"
            }
        ],
        "Category": "Miscellaneous",
        "Description": "Hello World",
        "Description[bg]": "Hello World",
        "Description[ca@valencia]": "Hola món",
        "Description[ca]": "Hola món",
        "Description[eo]": "Saluton Mondo",
        "Description[es]": "Hola, mundo",
        "Description[eu]": "kaixo mundua",
        "Description[fr]": "Bonjour à tout le monde",
        "Description[gl]": "Ola, mundo!",
        "Description[ia]": "Salute mundo",
        "Description[it]": "Ciao mondo",
        "Description[ka]": "გამარჯობა კინო",
        "Description[ko]": "Hello World",
        "Description[nl]": "Hallo wereld",
        "Description[pl]": "Witaj świecie",
        "Description[pt_BR]": "Olá mundo",
        "Description[sl]": "Pozdravljen svet",
        "Description[tr]": "Merhaba Dünya",
        "Description[uk]": "Привіт, світе",
        "Description[x-test]": "xxHello Worldxx",
        "Description[zh_CN]": "Hello World",
        "Icon": "package_toys",
        "Id": "org.kde.example.helloworld",
        "License": "GPL",
        "Name": "hello world",
        "Name[ar]": "مرحبا أيها العالم",
        "Name[az]": "salam dünya",
        "Name[be]": "вітаю, свет",
        "Name[bg]": "hello world",
        "Name[ca@valencia]": "hola món",
        "Name[ca]": "hola món",
        "Name[cs]": "Hello World",
        "Name[de]": "Hallo Welt",
        "Name[en_GB]": "hello world",
        "Name[eo]": "Saluton mondo",
        "Name[es]": "hola mundo",
        "Name[eu]": "kaixo mundua",
        "Name[fi]": "hei maailma",
        "Name[fr]": "Bonjour à tout le monde",
        "Name[gl]": "Ola mundo",
        "Name[ia]": "Salute mundo",
        "Name[id]": "hello world",
        "Name[it]": "ciao mondo",
        "Name[ka]": "გამარჯობა კინო",
        "Name[ko]": "hello world",
        "Name[nl]": "hallo wereld",
        "Name[nn]": "hei, verda",
        "Name[pl]": "witaj świecie",
        "Name[pt]": "olá mundo",
        "Name[pt_BR]": "olá mundo",
        "Name[ru]": "привет мир",
        "Name[sk]": "ahoj svet",
        "Name[sl]": "pozdravljen svet",
        "Name[sv]": "hello world",
        "Name[ta]": "வணக்கம், உலகமே",
        "Name[tr]": "merhaba dünya",
        "Name[uk]": "Привіт, світе",
        "Name[vi]": "chào thế giới",
        "Name[x-test]": "xxhello worldxx",
        "Name[zh_CN]": "hello world",
        "Version": "",
        "Website": ""
    },
    "Keywords": "",
    "X-KDE-ParentApp": "",
    "X-Plasma-API": "declarativeappletscript",
    "X-Plasma-MainScript": "ui/main.qml"
}
