{
    "KPackageStructure": "Plasma/Wallpaper",
    "KPlugin": {
        "Authors": [
            {
                "Email": "%{EMAIL}",
                "Name": "%{AUTHOR}",
                "Name[ar]": "%{المؤلف}",
                "Name[az]": "%{MÜƏLLİF}",
                "Name[be]": "%{AUTHOR}",
                "Name[bg]": "%{AUTHOR}",
                "Name[ca@valencia]": "%{AUTHOR}",
                "Name[ca]": "%{AUTHOR}",
                "Name[cs]": "%{AUTHOR}",
                "Name[de]": "%{AUTHOR}",
                "Name[en_GB]": "%{AUTHOR}",
                "Name[eo]": "%{AŬTORO}",
                "Name[es]": "%{AUTHOR}",
                "Name[eu]": "%{AUTHOR}",
                "Name[fi]": "%{AUTHOR}",
                "Name[fr]": "%{AUTHOR}",
                "Name[gl]": "%{AUTHOR}",
                "Name[ia]": "%{AUTHOR}",
                "Name[id]": "%{AUTHOR}",
                "Name[it]": "%{AUTHOR}",
                "Name[ka]": "%{AUTHOR}",
                "Name[ko]": "%{AUTHOR}",
                "Name[nl]": "%{AUTHOR}",
                "Name[nn]": "%{AUTHOR}",
                "Name[pl]": "%{AUTHOR}",
                "Name[pt]": "%{AUTHOR}",
                "Name[pt_BR]": "%{AUTHOR}",
                "Name[ru]": "%{AUTHOR}",
                "Name[sk]": "%{AUTHOR}",
                "Name[sl]": "%{AUTHOR}",
                "Name[sv]": "%{AUTHOR}",
                "Name[ta]": "%{AUTHOR}",
                "Name[tr]": "%{AUTHOR}",
                "Name[uk]": "%{AUTHOR}",
                "Name[vi]": "%{AUTHOR}",
                "Name[x-test]": "xx%{AUTHOR}xx",
                "Name[zh_CN]": "%{AUTHOR}"
            }
        ],
        "Description": "",
        "Icon": "plasma",
        "Id": "org.kde.plasma.%{APPNAMELC}",
        "License": "LGPL-2.1+",
        "Name": "%{APPNAME}",
        "Name[ar]": "%{اسم_التطبيق}",
        "Name[ast]": "%{APPNAME}",
        "Name[az]": "%{TƏTBİQ_ADI}",
        "Name[be]": "%{APPNAME}",
        "Name[bg]": "%{APPNAME}",
        "Name[ca@valencia]": "%{APPNAME}",
        "Name[ca]": "%{APPNAME}",
        "Name[cs]": "%{APPNAME}",
        "Name[de]": "%{APPNAME}",
        "Name[en_GB]": "%{APPNAME}",
        "Name[eo]": "%{APPNAME}",
        "Name[es]": "%{APPNAME}",
        "Name[eu]": "%{APPNAME}",
        "Name[fi]": "%{APPNAME}",
        "Name[fr]": "%{APPNAME}",
        "Name[gl]": "%{APPNAME}",
        "Name[ia]": "%{APPNAME}",
        "Name[id]": "%{APPNAME}",
        "Name[it]": "%{APPNAME}",
        "Name[ka]": "%{APPNAME}",
        "Name[ko]": "%{APPNAME}",
        "Name[nl]": "%{APPNAME}",
        "Name[nn]": "%{APPNAME}",
        "Name[pl]": "%{APPNAME}",
        "Name[pt]": "%{APPNAME}",
        "Name[pt_BR]": "%{APPNAME}",
        "Name[ru]": "%{APPNAME}",
        "Name[sk]": "%{APPNAME}",
        "Name[sl]": "%{APPNAME}",
        "Name[sv]": "%{APPNAME}",
        "Name[ta]": "%{APPNAME}",
        "Name[tr]": "%{APPNAME}",
        "Name[uk]": "%{APPNAME}",
        "Name[vi]": "%{APPNAME}",
        "Name[x-test]": "xx%{APPNAME}xx",
        "Name[zh_CN]": "%{APPNAME}",
        "Version": "%{VERSION}",
        "Website": "https://plasma.kde.org/"
    },
    "X-Plasma-MainScript": "ui/main.qml"
}
